{
   "about": {
      "message": "關於"
   },
   "account": {
      "message": "帳戶"
   },
   "addFolder": {
      "message": "新增資料夾"
   },
   "addItem": {
      "message": "新增項目"
   },
   "addLogin": {
      "message": "新增登入資料"
   },
   "addLoginNotificationDesc": {
      "message": "當您首次登入時，\"新增登入資料提示\" 會自動提醒您在密碼庫中新增登入資料。"
   },
   "addedFolder": {
      "message": "已新增資料夾"
   },
   "addedItem": {
      "message": "新增項目"
   },
   "address": {
      "message": "地址"
   },
   "address1": {
      "message": "地址 1"
   },
   "address2": {
      "message": "地址 2"
   },
   "address3": {
      "message": "地址 3"
   },
   "allItems": {
      "message": "所有項目"
   },
   "apiUrl": {
      "message": "API 伺服器網址"
   },
   "appName": {
      "message": "Bitwarden"
   },
   "april": {
      "message": "四月"
   },
   "attachmentSaved": {
      "message": "附件已儲存。"
   },
   "attachments": {
      "message": "附件"
   },
   "august": {
      "message": "八月"
   },
   "authenticatorAppDesc": {
      "description": "'Authy' and 'Google Authenticator' are product names and should not be translated.",
      "message": "使用驗證器應用程式 （如 Authy 或 Google Authenticator） 產生基於時間的驗證碼。"
   },
   "authenticatorAppTitle": {
      "message": "驗證器應用程式"
   },
   "authenticatorKeyTotp": {
      "message": "驗證器金鑰 (TOTP)"
   },
   "autoFill": {
      "message": "自動填入"
   },
   "autoFillInfo": {
      "message": "目前瀏覽器分頁中沒有可以自動填入登入資料的位置。"
   },
   "autofillError": {
      "message": "無法在此頁面自動填入您的帳戶資料。請手動複製／貼上您的帳戶及密碼。"
   },
   "avoidAmbChar": {
      "message": "避免易混淆的字元"
   },
   "back": {
      "message": "返回"
   },
   "baseDomain": {
      "message": "基底網域"
   },
   "baseUrl": {
      "message": "伺服器 URL"
   },
   "bitWebVault": {
      "message": "Bitwarden 網頁版"
   },
   "brand": {
      "message": "品牌"
   },
   "browserNotSupportClipboard": {
      "message": "您的瀏覽器不支援剪貼簿簡單複製，請手動複製。"
   },
   "cancel": {
      "message": "取消"
   },
   "cardholderName": {
      "message": "持卡人姓名"
   },
   "cards": {
      "message": "信用卡"
   },
   "cfTypeBoolean": {
      "message": "布林值"
   },
   "cfTypeHidden": {
      "message": "隱藏"
   },
   "cfTypeText": {
      "message": "文字"
   },
   "changeMasterPass": {
      "message": "變更主密碼"
   },
   "changeMasterPassword": {
      "message": "變更主密碼"
   },
   "changeMasterPasswordConfirmation": {
      "message": "您可以在 Bitwarden 網頁版變更主密碼。現在前往？"
   },
   "checkPassword": {
      "message": "檢查密碼是否已外洩。"
   },
   "cityTown": {
      "message": "市/鎮"
   },
   "clear": {
      "message": "清除"
   },
   "close": {
      "message": "關閉"
   },
   "collections": {
      "message": "收藏"
   },
   "commandAutofillDesc": {
      "message": "自動使用最後一次登入的帳戶填入目前網站"
   },
   "commandGeneratePasswordDesc": {
      "message": "產生並將一個新的隨機密碼複製到剪貼簿中。"
   },
   "company": {
      "message": "公司"
   },
   "continue": {
      "message": "繼續"
   },
   "copyNote": {
      "message": "複製筆記"
   },
   "copyNumber": {
      "message": "複製號碼"
   },
   "copyPassword": {
      "message": "複製密碼"
   },
   "copySecurityCode": {
      "message": "複製安全代碼"
   },
   "copyUri": {
      "message": "複製 URI"
   },
   "copyUsername": {
      "message": "複製使用者名稱"
   },
   "copyValue": {
      "message": "複製值"
   },
   "copyVerificationCode": {
      "message": "複製驗證碼"
   },
   "country": {
      "message": "國家"
   },
   "createAccount": {
      "message": "新增帳戶"
   },
   "currentTab": {
      "message": "目前分頁"
   },
   "customEnvironment": {
      "message": "自訂環境"
   },
   "customEnvironmentFooter": {
      "message": "適用於進階使用者。您可以單獨指定各個服務的基礎 URL。"
   },
   "customFields": {
      "message": "自訂欄位"
   },
   "dark": {
      "description": "Dark color",
      "message": "深色"
   },
   "datePasswordUpdated": {
      "description": "ex. Date this password was updated",
      "message": "密碼已更新"
   },
   "dateUpdated": {
      "description": "ex. Date this item was updated",
      "message": "已更新"
   },
   "december": {
      "message": "十二月"
   },
   "default": {
      "message": "預設"
   },
   "defaultMatchDetection": {
      "description": "Default URI match detection for auto-fill.",
      "message": "預設相符偵測"
   },
   "defaultUriMatchDetection": {
      "description": "Default URI match detection for auto-fill.",
      "message": "Default URI Match Detection"
   },
   "defaultUriMatchDetectionDesc": {
      "message": "Choose the default way that URI match detection is handled for logins when performing actions such as auto-fill."
   },
   "deleteAttachment": {
      "message": "刪除附件"
   },
   "deleteAttachmentConfirmation": {
      "message": "確定要刪除此附件嗎？"
   },
   "deleteFolder": {
      "message": "刪除資料夾"
   },
   "deleteFolderConfirmation": {
      "message": "您確定要刪除此資料夾嗎？"
   },
   "deleteItem": {
      "message": "刪除項目"
   },
   "deleteItemConfirmation": {
      "message": "確定要刪除此項目嗎?"
   },
   "deletedAttachment": {
      "message": "附件已刪除"
   },
   "deletedFolder": {
      "message": "已刪除的資料夾"
   },
   "deletedItem": {
      "message": "已刪除項目"
   },
   "disableAddLoginNotification": {
      "message": "停用新增登入資料提示"
   },
   "disableAutoTotpCopy": {
      "message": "停用自動複製 TOTP"
   },
   "disableAutoTotpCopyDesc": {
      "message": "如果您的登入資料已包含驗證器金鑰，TOTP 驗證碼會在您自動填入時自動複製到您的剪貼簿。"
   },
   "disableChangedPasswordNotification": {
      "message": "停用密碼變更通知"
   },
   "disableChangedPasswordNotificationDesc": {
      "message": "偵測到您已變更網站上的密碼時，「密碼變更通知」將會自動提醒您更新密碼庫的密碼。"
   },
   "disableContextMenuItem": {
      "message": "隱藏右鍵選單選項"
   },
   "disableContextMenuItemDesc": {
      "message": "右鍵選單選項幫您快速使用密碼產生器，也可以登入目前分頁開啟的網站。"
   },
   "disableFavicon": {
      "message": "停用網站圖示顯示功能"
   },
   "disableFaviconDesc": {
      "message": "在您密碼庫的每個登入資料旁顯示一個可辨識圖示。"
   },
   "dontShowCardsCurrentTab": {
      "message": "不要在分頁上顯示信用卡"
   },
   "dontShowCardsCurrentTabDesc": {
      "message": "將密碼庫中的信用卡列在 \"目前分頁\" 頁面上，以便於自動填入造訪。"
   },
   "dontShowIdentitiesCurrentTab": {
      "message": "不在分頁上顯示識別身分"
   },
   "dontShowIdentitiesCurrentTabDesc": {
      "message": "將密碼庫中的識別身分列在 \"目前分頁\" 頁面上，以便於自動填入造訪。"
   },
   "dr": {
      "message": "Dr"
   },
   "duoDesc": {
      "description": "'Duo Security' and 'Duo Mobile' are product names and should not be translated.",
      "message": "與 Duo Security 驗證，可使用 Duo Mobile 程式， SMS ，致電或 U2F 安全鑰匙。"
   },
   "duoOrganizationDesc": {
      "description": "'Duo Security' and 'Duo Mobile' are product names and should not be translated.",
      "message": "使用 Duo Security 驗證您的組織，可使用 Duo Mobile 程式， SMS ，致電或 U2F 安全鑰匙。"
   },
   "edit": {
      "message": "編輯"
   },
   "editFolder": {
      "message": "編輯資料夾"
   },
   "editItem": {
      "message": "編輯項目"
   },
   "editedFolder": {
      "message": "已編輯資料夾"
   },
   "editedItem": {
      "message": "已編輯項目"
   },
   "email": {
      "message": "電子郵件"
   },
   "emailAddress": {
      "message": "電子郵件地址"
   },
   "emailDesc": {
      "message": "驗證碼將使用電子郵件傳送給您。"
   },
   "emailRequired": {
      "message": "必須填入電子郵件地址 。"
   },
   "emailTitle": {
      "message": "電子郵件"
   },
   "enableAutoFillOnPageLoad": {
      "message": "啟用頁面載入時自動填入表單"
   },
   "enableAutoFillOnPageLoadDesc": {
      "message": "如果網頁載入時偵測到登入表單，則自動執行表單填入。"
   },
   "enterEmailToGetHint": {
      "message": "請輸入您的帳户電子郵件地址以接收主密碼提示。"
   },
   "enterVerificationCodeApp": {
      "message": "輸入驗證器應用程式提供的 6 位數驗證碼。"
   },
   "enterVerificationCodeEmail": {
      "message": "輸入已傳送至 $EMAIL$ 的 6 位數驗證碼。",
      "placeholders": {
         "email": {
            "content": "$1",
            "example": "example@gmail.com"
         }
      }
   },
   "environmentSaved": {
      "message": "環境 URL 已儲存。"
   },
   "errorOccurred": {
      "message": "發生錯誤。"
   },
   "ex": {
      "message": "例如"
   },
   "exact": {
      "message": "完全符合"
   },
   "experimentalFeature": {
      "message": "目前這是一項實驗性功能。要使用需自行承擔風險。"
   },
   "expiration": {
      "message": "到期"
   },
   "expirationMonth": {
      "message": "到期月份"
   },
   "expirationYear": {
      "message": "到期年份"
   },
   "exportMasterPassword": {
      "message": "輸入您的主密碼以匯出密碼庫資料。"
   },
   "exportVault": {
      "message": "匯出密碼庫"
   },
   "exportWarningDesc": {
      "message": "This export contains your vault data in an unencrypted format. You should not store or send the exported file over unsecure channels (such as email). Delete it immediately after you are done using it."
   },
   "extDesc": {
      "description": "Extension description",
      "message": "Bitwarden 是一個安全、免費、跨平台的密碼管理工具。"
   },
   "extName": {
      "description": "Extension name",
      "message": "Bitwarden - 免費密碼管理工具"
   },
   "favorite": {
      "message": "我的最愛"
   },
   "favorites": {
      "message": "我的最愛"
   },
   "featureUnavailable": {
      "message": "功能無法使用"
   },
   "february": {
      "message": "二月"
   },
   "fifteenMinutes": {
      "message": "15 分鐘"
   },
   "file": {
      "message": "檔案"
   },
   "fileFormat": {
      "message": "檔案格式"
   },
   "fingerprintPhrase": {
      "description": "A 'fingerprint phrase' is a unique word phrase (similar to a passphrase) that a user can use to authenticate their public key with another user, for the purposes of sharing.",
      "message": "指紋短語"
   },
   "firstName": {
      "message": "名"
   },
   "fiveMinutes": {
      "message": "5 分鐘"
   },
   "folder": {
      "message": "資料夾"
   },
   "folders": {
      "message": "資料夾"
   },
   "fourHours": {
      "message": "4 小時"
   },
   "generatePassword": {
      "message": "產生密碼"
   },
   "generatePasswordCopied": {
      "message": "產生及複製密碼"
   },
   "generator": {
      "description": "Short for 'Password Generator'.",
      "message": "產生器"
   },
   "getMasterPasswordHint": {
      "message": "取得主密碼提示"
   },
   "gettingStartedTutorial": {
      "message": "新手教學"
   },
   "gettingStartedTutorialVideo": {
      "message": "觀看我們的新手教學，了解如何充分利用我們的瀏覽器擴充套件。"
   },
   "good": {
      "description": "ex. A good password. Scale: Weak -> Good -> Strong",
      "message": "不錯"
   },
   "helpFeedback": {
      "message": "協助與意見反應"
   },
   "host": {
      "description": "A URL's host value. For example, the host of https://sub.domain.com:443 is 'sub.domain.com:443'.",
      "message": "主機"
   },
   "iconsUrl": {
      "message": "圖示伺服器 URL"
   },
   "identities": {
      "message": "身分"
   },
   "identityName": {
      "message": "身分名稱"
   },
   "identityUrl": {
      "message": "身分伺服器 URL"
   },
   "immediately": {
      "message": "立即"
   },
   "importItems": {
      "message": "匯入項目"
   },
   "insertU2f": {
      "message": "將您的安全鑰匙插入電腦的 USB 連接埠，然後按一下它的按鈕（如有的話）。"
   },
   "insertYubiKey": {
      "message": "將您的 YubiKey 插入電腦的 USB 連接埠，然後按一下它的按鈕。"
   },
   "invalidEmail": {
      "message": "無效的電子郵件地址。"
   },
   "invalidMasterPassword": {
      "message": "無效的主密碼"
   },
   "itemInformation": {
      "message": "項目資訊"
   },
   "january": {
      "message": "一月"
   },
   "july": {
      "message": "七月"
   },
   "june": {
      "message": "六月"
   },
   "lastName": {
      "message": "姓"
   },
   "lastSync": {
      "message": "上次同步於："
   },
   "launch": {
      "message": "啟動"
   },
   "learnMore": {
      "message": "了解更多"
   },
   "length": {
      "message": "長度"
   },
   "licenseNumber": {
      "message": "許可證編號"
   },
   "light": {
      "description": "Light color",
      "message": "淺色"
   },
   "lockNow": {
      "message": "立即鎖定"
   },
   "lockOptions": {
      "message": "自動鎖定時間"
   },
   "logOut": {
      "message": "登出"
   },
   "logOutConfirmation": {
      "message": "您確定要登出嗎？"
   },
   "loggedInAs": {
      "message": "Logged in as $EMAIL$.",
      "placeholders": {
         "email": {
            "content": "$1",
            "example": "name@example.com"
         }
      }
   },
   "loggedOut": {
      "message": "已登出"
   },
   "login": {
      "message": "登入"
   },
   "loginExpired": {
      "message": "您的登入階段已過期。"
   },
   "loginOrCreateNewAccount": {
      "message": "登入或新增帳戶。"
   },
   "loginUnavailable": {
      "message": "無法登入"
   },
   "logins": {
      "message": "登入資料"
   },
   "manage": {
      "message": "管理"
   },
   "march": {
      "message": "三月"
   },
   "masterPass": {
      "message": "主密碼"
   },
   "masterPassDesc": {
      "message": "主密碼是您存取密碼庫的密碼。請勿忘記主密碼，我們無法將您的主密碼復原或重設。"
   },
   "masterPassDoesntMatch": {
      "message": "兩次填寫的主密碼不相符。"
   },
   "masterPassHint": {
      "message": "主密碼提示 (選填)"
   },
   "masterPassHintDesc": {
      "message": "主密碼提示可以在您忘記主密碼時幫助您回憶主密碼。"
   },
   "masterPassLength": {
      "message": "主密碼需要至少 8 個字元。"
   },
   "masterPassRequired": {
      "message": "必須填入主密碼。"
   },
   "masterPassSent": {
      "message": "已寄出包含您主密碼提示的電子郵件。"
   },
   "matchDetection": {
      "description": "URI match detection for auto-fill.",
      "message": "相符偵測"
   },
   "maxFileSize": {
      "message": "最大檔案大小為 100MB。"
   },
   "may": {
      "message": "五月"
   },
   "middleName": {
      "message": "中間名"
   },
   "minNumbers": {
      "message": "數字"
   },
   "minSpecial": {
      "message": "符號"
   },
   "mr": {
      "message": "Mr"
   },
   "mrs": {
      "message": "Mrs"
   },
   "ms": {
      "message": "Ms"
   },
   "myVault": {
      "message": "密碼庫"
   },
   "name": {
      "message": "名稱"
   },
   "nameRequired": {
      "message": "必須填入名稱。"
   },
   "never": {
      "message": "永不"
   },
   "neverLockWarning": {
      "message": "您確定要使用“永不”選項嗎？將鎖定選項設定為“永不”會將密碼庫的加密金鑰儲存在您的裝置上。如果使用此選項，應確保您的裝置是安全的。"
   },
   "newAccountCreated": {
      "message": "帳戶已建立！現在可以登入了。"
   },
   "newAttachment": {
      "message": "新增附件"
   },
   "newCustomField": {
      "message": "新增自訂欄位"
   },
   "newUri": {
      "message": "新增 URI"
   },
   "no": {
      "message": "否"
   },
   "noAttachments": {
      "message": "沒有附件。"
   },
   "noCollectionsInList": {
      "message": "沒有可顯示的收藏。"
   },
   "noFolders": {
      "message": "沒有可顯示的資料夾。"
   },
   "noItemsInList": {
      "message": "沒有可顯示的項目。"
   },
   "noMatchingLogins": {
      "message": "沒有符合的登入資料。"
   },
   "noOrganizationsList": {
      "message": "您沒有加入任何組織。同一組織的使用者可以安全地分享登入帳密等資料。"
   },
   "noPasswordsInList": {
      "message": "沒有可顯示的密碼。"
   },
   "noTwoStepProviders": {
      "message": "此帳號已啟用兩步驟登入，但是本瀏覽器不支援已設定的兩步驟登入方式。"
   },
   "noTwoStepProviders2": {
      "message": "請使用已支援的瀏覽器（例如 Chrome ），及／或新增可以更好地跨瀏覽器的兩步驟登入方法（例如驗證器應用程式）。"
   },
   "noneFolder": {
      "description": "This is the folder for uncategorized items",
      "message": "沒有資料夾"
   },
   "note": {
      "message": "筆記"
   },
   "notes": {
      "message": "筆記"
   },
   "notificationAddDesc": {
      "message": "希望 Bitwarden 幫您儲存這個密碼嗎？"
   },
   "notificationAddSave": {
      "message": "好，現在儲存"
   },
   "notificationChangeDesc": {
      "message": "是否要在 Bitwarden 中更新此密碼？"
   },
   "notificationChangeSave": {
      "message": "是，立即更新"
   },
   "notificationNeverSave": {
      "message": "此網站不再提示"
   },
   "notificationsUrl": {
      "message": "通知伺服器 URL"
   },
   "november": {
      "message": "十一月"
   },
   "numWords": {
      "message": "字數"
   },
   "number": {
      "message": "號碼"
   },
   "october": {
      "message": "十月"
   },
   "onLocked": {
      "message": "系統鎖定時"
   },
   "onRestart": {
      "message": "於瀏覽器重新啟動時"
   },
   "oneHour": {
      "message": "1 小時"
   },
   "oneMinute": {
      "message": "1 分鐘"
   },
   "options": {
      "message": "進階選項"
   },
   "organization": {
      "description": "An entity of multiple related people (ex. a team or business organization).",
      "message": "組織"
   },
   "other": {
      "message": "其他"
   },
   "overwritePassword": {
      "message": "覆寫密碼"
   },
   "overwritePasswordConfirmation": {
      "message": "您確定要覆寫目前的密碼嗎？"
   },
   "ownership": {
      "message": "所有權"
   },
   "passGen": {
      "message": "密碼產生器"
   },
   "passGenInfo": {
      "message": "自動產生安全、獨特的登入密碼。"
   },
   "passphrase": {
      "message": "密碼"
   },
   "passportNumber": {
      "message": "護照號碼"
   },
   "password": {
      "message": "密碼"
   },
   "passwordCopied": {
      "message": "密碼已複製"
   },
   "passwordExposed": {
      "message": "此密碼已外洩了 $VALUE$ 次，應立即變更密碼。",
      "placeholders": {
         "value": {
            "content": "$1",
            "example": "2"
         }
      }
   },
   "passwordHint": {
      "message": "密碼提示"
   },
   "passwordHistory": {
      "message": "密碼歷史記錄"
   },
   "passwordSafe": {
      "message": "任何已知的外洩密碼資料庫中都沒有此密碼，它目前是安全的。"
   },
   "phone": {
      "message": "電話號碼"
   },
   "popOutNewWindow": {
      "message": "彈出至新視窗"
   },
   "popup2faCloseMessage": {
      "message": "如果您點選彈出式視窗外的任意區域，將導致彈出式視窗關閉。您想在新視窗中開啟此彈出式視窗，以讓它不關閉嗎？"
   },
   "ppremiumSignUpFuture": {
      "message": "未來會有更多進階功能，敬請期待！"
   },
   "ppremiumSignUpReports": {
      "message": "Password hygiene, account health, and data breach reports to keep your vault safe."
   },
   "ppremiumSignUpStorage": {
      "message": "用於檔案附件的 1 GB 的加密檔案儲存空間。"
   },
   "ppremiumSignUpSupport": {
      "message": "優先客戶支援。"
   },
   "ppremiumSignUpTotp": {
      "message": "用於您的登入資料的 TOTP 驗證碼 (2FA) 產生器。"
   },
   "ppremiumSignUpTwoStep": {
      "message": "YubiKey，FIDO U2F 和 Duo 等額外的兩步驟登入選項。"
   },
   "premiumCurrentMember": {
      "message": "您目前是進階會員！"
   },
   "premiumCurrentMemberThanks": {
      "message": "感謝您支持 Bitwarden 。"
   },
   "premiumManage": {
      "message": "管理會員資格"
   },
   "premiumManageAlert": {
      "message": "您可以在 Bitwarden 網頁版管理您的會員資格。現在前往？"
   },
   "premiumMembership": {
      "message": "進階會員"
   },
   "premiumNotCurrentMember": {
      "message": "您目前不是進階會員。"
   },
   "premiumPrice": {
      "message": "每年只需 %price% ！",
      "placeholders": {
         "price": {
            "content": "$1",
            "example": "$10"
         }
      }
   },
   "premiumPurchase": {
      "message": "購買進階會員資格"
   },
   "premiumPurchaseAlert": {
      "message": "您可以在 Bitwarden 網頁版購買進階會員資格。現在前往？"
   },
   "premiumRefresh": {
      "message": "重新整理會員資訊"
   },
   "premiumRequired": {
      "message": "需要進階會員資格"
   },
   "premiumRequiredDesc": {
      "message": "進階會員才可使用此功能。"
   },
   "premiumSignUpAndGet": {
      "message": "成為進階會員並取得："
   },
   "privateModeMessage": {
      "message": "很遺憾，在瀏覽器的隱私模式下，此視窗無法使用。"
   },
   "rateExtension": {
      "message": "為本擴充套件評分"
   },
   "rateExtensionDesc": {
      "message": "給我們留個好評吧！"
   },
   "reTypeMasterPass": {
      "message": "重新輸入主密碼"
   },
   "recoveryCodeDesc": {
      "message": "無法使用任何兩步驟登入方式？用復原碼停用所有兩步驟登入方式。"
   },
   "recoveryCodeTitle": {
      "message": "復原代碼"
   },
   "refresh": {
      "message": "重新整理"
   },
   "refreshComplete": {
      "message": "重新整理完成"
   },
   "regEx": {
      "description": "A programming term, also known as 'RegEx'.",
      "message": "規則運算式"
   },
   "regeneratePassword": {
      "message": "重新產生密碼"
   },
   "rememberMe": {
      "message": "記住我的登入資訊"
   },
   "remove": {
      "message": "移除"
   },
   "save": {
      "message": "儲存"
   },
   "searchCollection": {
      "message": "搜尋收藏"
   },
   "searchFolder": {
      "message": "搜尋資料夾"
   },
   "searchType": {
      "message": "搜尋類型"
   },
   "searchVault": {
      "message": "搜尋"
   },
   "secureNotes": {
      "message": "安全筆記"
   },
   "security": {
      "message": "安全"
   },
   "securityCode": {
      "message": "安全代碼"
   },
   "select": {
      "message": "選擇"
   },
   "selectFile": {
      "message": "選擇檔案。"
   },
   "selfHostedEnvironment": {
      "message": "自我託管的環境"
   },
   "selfHostedEnvironmentFooter": {
      "message": "指定自己設定、管理的 Bitwarden 環境之基礎 URL。"
   },
   "sendVerificationCodeEmailAgain": {
      "message": "再次傳送​​包含驗證碼的電子郵件"
   },
   "september": {
      "message": "九月"
   },
   "settings": {
      "message": "設定"
   },
   "share": {
      "message": "分享"
   },
   "shareDesc": {
      "message": "選擇您希望分享這個項目的組織。項目的擁有權將會轉移到組織。一經分享，您將不再是此項目的直接擁有者。"
   },
   "shareItem": {
      "message": "分享項目"
   },
   "shareVault": {
      "message": "分享您的密碼庫"
   },
   "shareVaultConfirmation": {
      "message": "Bitwarden 允許您使用組織帳戶與他人共享您的密碼庫。您想造訪 bitwarden.com 網站以了解更多內容嗎？"
   },
   "shared": {
      "message": "共用"
   },
   "sharedItem": {
      "message": "已分享項目"
   },
   "ssn": {
      "message": "社會保險號碼"
   },
   "startsWith": {
      "message": "開始於"
   },
   "stateProvince": {
      "message": "州/省"
   },
   "strong": {
      "description": "ex. A strong password. Scale: Weak -> Good -> Strong",
      "message": "高強度"
   },
   "submit": {
      "message": "送出"
   },
   "sync": {
      "message": "同步"
   },
   "syncVaultNow": {
      "message": "立即同步密碼庫"
   },
   "syncingComplete": {
      "message": "同步完成"
   },
   "syncingFailed": {
      "message": "同步失敗"
   },
   "tab": {
      "message": "分頁"
   },
   "theme": {
      "message": "主題"
   },
   "themeDesc": {
      "message": "變更應用程式的主題色彩。"
   },
   "thirtyMinutes": {
      "message": "30 分鐘"
   },
   "title": {
      "message": "稱呼"
   },
   "toggleOptions": {
      "message": "切換選項"
   },
   "toggleVisibility": {
      "message": "切換可見度"
   },
   "tools": {
      "message": "工具"
   },
   "twoStepLogin": {
      "message": "兩步驟登入"
   },
   "twoStepLoginConfirmation": {
      "message": "兩步驟登入需要您登入時輸入一個由驗證碼程式產生的安全碼，為您的帳戶增加一層保障。兩步驟登入可以在 Bitwarden 網頁版啟用。現在前往？"
   },
   "twoStepNewWindowMessage": {
      "message": "使用新分頁完成您的兩步驟登入要求。"
   },
   "twoStepOptions": {
      "message": "兩步驟登入選項"
   },
   "type": {
      "message": "類型"
   },
   "typeCard": {
      "message": "信用卡"
   },
   "typeIdentity": {
      "message": "身分"
   },
   "typeLogin": {
      "message": "登入"
   },
   "typeLogins": {
      "message": "登入資料"
   },
   "typeSecureNote": {
      "message": "安全筆記"
   },
   "types": {
      "message": "類型"
   },
   "u2fDesc": {
      "message": "使用任何啟用了 FIDO U2F 的安全鑰匙來存取您的帳戶。"
   },
   "u2fTitle": {
      "message": "FIDO U2F 安全鑰匙"
   },
   "unexpectedError": {
      "message": "發生了未預期的錯誤。"
   },
   "unlock": {
      "message": "Unlock"
   },
   "updateKey": {
      "message": "更新加密金鑰前不能使用此功能。"
   },
   "uri": {
      "message": "URI"
   },
   "uriPosition": {
      "description": "A listing of URIs. Ex: URI 1, URI 2, URI 3, etc.",
      "message": "URI $POSITION$",
      "placeholders": {
         "position": {
            "content": "$1",
            "example": "2"
         }
      }
   },
   "useAnotherTwoStepMethod": {
      "message": "使用另一種兩步驟登入方法"
   },
   "username": {
      "message": "使用者名稱"
   },
   "value": {
      "message": "值"
   },
   "valueCopied": {
      "description": "Value has been copied to the clipboard.",
      "message": "$VALUE$ 已複製",
      "placeholders": {
         "value": {
            "content": "$1",
            "example": "Password"
         }
      }
   },
   "vaultLocked": {
      "message": "密碼庫已鎖定"
   },
   "verificationCode": {
      "message": "驗證碼"
   },
   "verificationCodeEmailSent": {
      "message": "驗證碼已傳送至 $EMAIL$。",
      "placeholders": {
         "email": {
            "content": "$1",
            "example": "example@gmail.com"
         }
      }
   },
   "verificationCodeRequired": {
      "message": "必須填入驗證碼。"
   },
   "verificationCodeTotp": {
      "message": "驗證碼 (TOTP)"
   },
   "verifyMasterPassword": {
      "message": "驗證主密碼"
   },
   "version": {
      "message": "版本"
   },
   "view": {
      "message": "檢視"
   },
   "viewItem": {
      "message": "檢視項目"
   },
   "warning": {
      "description": "WARNING (should stay in capitalized letters if the language permits)",
      "message": "警告"
   },
   "weak": {
      "description": "ex. A weak password. Scale: Weak -> Good -> Strong",
      "message": "脆弱"
   },
   "weakMasterPassword": {
      "message": "脆弱的主密碼"
   },
   "weakMasterPasswordDesc": {
      "message": "您設定的主密碼很脆弱。您應該使用高強度的密碼 (複雜密碼) 來正確保護您的 bitwarden 帳戶。仍要使用此密碼嗎？"
   },
   "webVaultUrl": {
      "message": "網路版密碼庫伺服器 URL"
   },
   "website": {
      "message": "網站"
   },
   "whoOwnsThisItem": {
      "message": "誰擁有這個項目？"
   },
   "wordSeparator": {
      "message": "文字分隔字元"
   },
   "yes": {
      "message": "是"
   },
   "yourAccountsFingerprint": {
      "description": "A 'fingerprint phrase' is a unique word phrase (similar to a passphrase) that a user can use to authenticate their public key with another user, for the purposes of sharing.",
      "message": "您帳戶的指紋短語"
   },
   "yourVaultIsLocked": {
      "message": "Your vault is locked. Verify your master password to continue."
   },
   "yubiKeyDesc": {
      "message": "使用 YubiKey 存取您的帳戶。相容於 YubiKey 4, 4 Nano, 4C, 和 NEO 裝置。"
   },
   "yubiKeyTitle": {
      "message": "YubiKey OTP 安全鑰匙"
   },
   "zipPostalCode": {
      "message": "郵遞區號"
   }
}
